[
    {
        "engname": "Bloodlust",
        "rusname": "Жажда крови",
        "basic": "Увеличивает у выбранного дружественного отряда атаку в ближнем бою на 3 ед. При использовании заклинания поверх способности Огров-магов, действие продлевается до величины Силы магии героя, но эффект остается Продвинутого уровня.",
        "advance": "Увеличивает у выбранного дружественного отряда атаку в ближнем бою на 6 ед.",
        "expert": "Увеличивает атаку в ближнем бою у всех дружественных отрядов на 6 ед.",
        "class_spell": "бафф",
        "element": "огонь",
        "level": "1",
        "value": "Basic: 7  / Advance:  15  / Expert:  15",
        "img": "https://hommbase.ru/images/spells/bloodlust.png"
    },
    {
        "engname": "Curse",
        "rusname": "Проклятие",
        "basic": "У выбранной вражеской цели урон снижается до возможного минимума, если имеется разброс. Заклинание нейтрализуется Благословением и наоборот.",
        "advance": "У выбранной вражеской цели урон снижается до возможного минимума минус 1 ед. Урон не может быть меньше 1 ед.",
        "expert": "У всех вражеских целей урон снижается до возможного минимума минус 1 ед. Урон не может быть меньше 1 ед.",
        "class_spell": "дебафф",
        "element": "огонь",
        "level": "1",
        "value": "Basic: 10  / Advance:  11  / Expert:  11",
        "img": "https://hommbase.ru/images/spells/curse.png"
    },
    {
        "engname": "Protection from fire",
        "rusname": "Защита от огня",
        "basic": "Выбранный дружественный отряд получает на 50% меньше урона от заклинаний огня. Заклинание действует в совокупности со способностями големов. Герои ИИ никогда не станут колдовать Защиту от огня, если в книге заклинаний игрока нет ударных заклинаний соответствующей стихии. При использовании заклинания поверх способности Элементалей энергии, действие продлевается до величины Силы магии героя, но эффект остается Продвинутого уровня.",
        "advance": "Выбранный дружественный отряд получает на 75% меньше урона от заклинаний огня.",
        "expert": "Все дружественные отряды получают на 75% меньше урона от заклинаний огня.",
        "class_spell": "бафф",
        "element": "огонь",
        "level": "1",
        "value": "Basic: 2  / Advance:  4  / Expert:  4",
        "img": "https://hommbase.ru/images/spells/protectionfromfire.png"
    },
    {
        "engname": "Blind",
        "rusname": "Ослепление",
        "basic": "Вражеская цель пропускает ходы до тех пор, пока не будет атакована. После снятия заклинания атакой, первая контратака существа нанесет только 50% урона.",
        "advance": "Цель также пропускает ходы, но первая контратака после снятия заклинания нанесет 25% урона.",
        "expert": "Цель также пропускает ходы и атакованный ослепленный отряд не наносит ответный удар.",
        "class_spell": "дебафф",
        "element": "огонь",
        "level": "2",
        "value": "Basic: 50  / Advance:  50  / Expert:  50",
        "img": "https://hommbase.ru/images/spells/blind.png"
    },
    {
        "engname": "Fire wall",
        "rusname": "Стена огня",
        "basic": "В указанном месте поля боя на двух смежных гексах по вертикали появляется стена огня, при прохождении через которую, существо получает урон равный: Сила магии героя * 10 + 10 (ед.) Летающие существа получают урон от стены только если остановятся в ней. ",
        "advance": "Величина стены увеличивается на 1 гекс по вертикали, а также увеличивается ее урон: Сила магии героя * 10 + 20 (ед.)",
        "expert": "Заклинание наносит увеличенный урон: Сила магии героя * 10 + 50 (ед.)",
        "class_spell": "атакующее",
        "element": "огонь",
        "level": "2",
        "value": "Basic: 1  / Advance:  1  / Expert:  1",
        "img": "https://hommbase.ru/images/spells/firewall.png"
    },
    {
        "engname": "Fireball",
        "rusname": "Огненный шар",
        "basic": "В указанной зоне площадью 7 гексов все существа получают урон равный: Сила магии героя * 10 + 15 (ед.) Целью может быть пустой гекс.",
        "advance": "Наносит увеличенный урон: Сила магии героя * 10 + 30 (ед.)",
        "expert": "Наносит увеличенный урон: Сила магии героя * 10 + 60 (ед.)",
        "class_spell": "атакующее",
        "element": "огонь",
        "level": "3",
        "value": "Basic: 15  / Advance:  15  / Expert:  15",
        "img": "https://hommbase.ru/images/spells/fireball.png"
    },
    {
        "engname": "Land mine",
        "rusname": "Минное поле",
        "basic": "На 4 случайных гексах поля появляются мины, которые видны только колдующему и существам на родной земле. При контакте с миной вражеское существо получает урон равный: Сила магии героя * 10 + 25 (ед.), после чего мина исчезает. Мины не срабатывают на тех существ, которые их видят.",
        "advance": "Количество мин на поле увеличивается до 6, а их урон возрастает: Сила магии героя * 10 + 50 (ед.)",
        "expert": "Количество мин на поле увеличивается до 8, а их урон возрастает: Сила магии героя * 10 + 100 (ед.)",
        "class_spell": "атакующее",
        "element": "огонь",
        "level": "3",
        "value": "Basic: 1  / Advance:  1  / Expert:  1",
        "img": "https://hommbase.ru/images/spells/landmine.png"
    },
    {
        "engname": "Misfortune",
        "rusname": "Неудача",
        "basic": "Удача выбранной вражеской цели снижается на 1, но не ниже -3.",
        "advance": "Удача выбранной вражеской цели снижается на 2, но не ниже -3.",
        "expert": "Удача всех вражеских отрядов уменьшается на 2, но не ниже -3.",
        "class_spell": "дебафф",
        "element": "огонь",
        "level": "3",
        "value": "Basic: 1  / Advance:  2  / Expert:  2",
        "img": "https://hommbase.ru/images/spells/misfortune.png"
    },
    {
        "engname": "Armageddon",
        "rusname": "Армагеддон",
        "basic": "Наносит всем существам и боевым машиным на поле боя урон равный: Сила магии героя * 40 + 30 (ед.)",
        "advance": "Наносит всем существам и боевым машиным на поле боя урон равный: Сила магии героя * 40 + 60 (ед.)",
        "expert": "Наносит всем существам и боевым машиным на поле боя урон равный: Сила магии героя * 40 + 120 (ед.)",
        "class_spell": "атакующее",
        "element": "огонь",
        "level": "4",
        "value": "Basic: 100  / Advance:  100  / Expert:  100",
        "img": "https://hommbase.ru/images/spells/armageddon.png"
    },
    {
        "engname": "Berserk",
        "rusname": "Берсерк",
        "basic": "Указанная цель в свой следующий ход атакует ближайшее существо или боевую машину, даже если они союзные. Эффект заклинания исчезает, если цель совершила атаку. ",
        "advance": "Площадь действия заклинания увеличивается до 7 гексов: указанный и смежные вокруг него. Все цели, попавшие в область действия, подвергаются действию заклинания.",
        "expert": "Площадь действия заклинания увеличивается до 14 гексов: указанный и по 2 смежных во все стороны.",
        "class_spell": "особое",
        "element": "огонь",
        "level": "4",
        "value": "Basic: 60  / Advance:  60  / Expert:  60",
        "img": "https://hommbase.ru/images/spells/berserk.png"
    },
    {
        "engname": "Fire shield",
        "rusname": "Огненный щит",
        "basic": "Накладывается на союзное существо. Противник, атаковавший существо со щитом, получает 20% от нанесенного урона обратно. Процент берется после расчета всех бонусов к атаке, но до расчета штрафов. ",
        "advance": "Возвращаемый щитом урон увеличивается до 25%.",
        "expert": "Возвращаемый щитом урон увеличивается до 30%.",
        "class_spell": "бафф",
        "element": "огонь",
        "level": "4",
        "value": "Basic: 10  / Advance:  12  / Expert:  15",
        "img": "https://hommbase.ru/images/spells/fireshield.png"
    },
    {
        "engname": "Frenzy",
        "rusname": "Бешенство",
        "basic": "Защита выбранной союзной цели становится равной 0, а атака увеличивается на разницу между нынешним показателем защиты и нулем. Заклинание исчезает через один раунд после применения на очереди хода того существа, с которого было применено заклинание.",
        "advance": "Защита также обнуляется, но атака возрастает на 150% от отнятой защиты.",
        "expert": "Защита также обнуляется, но атака возрастает на удвоенное количество отнятых очков защиты.",
        "class_spell": "бафф",
        "element": "огонь",
        "level": "4",
        "value": "Basic: 10  / Advance:  20  / Expert:  30",
        "img": "https://hommbase.ru/images/spells/frenzy.png"
    },
    {
        "engname": "Inferno",
        "rusname": "Инферно",
        "basic": "В указанной зоне площадью 14 гексов все существа получают урон равный: Сила магии героя * 10 + 20 (ед.) Целью может быть пустой гекс.",
        "advance": "Наносит увеличенный урон: Сила магии героя * 10 + 40 (ед.)",
        "expert": "Наносит увеличенный урон: Сила магии героя * 10 + 80 (ед.)",
        "class_spell": "атакующее",
        "element": "огонь",
        "level": "4",
        "value": "Basic: 20  / Advance:  20  / Expert:  20",
        "img": "https://hommbase.ru/images/spells/inferno.png"
    },
    {
        "engname": "Slayer",
        "rusname": "Палач",
        "basic": "Увеличивает атаку дружественного отряда против Чудищ, Огненных птиц, Гидр, Морских змеев и всех драконов (включая нейтралов и улучшенные версии существ) на 8 ед.",
        "advance": "К списку существ, на которых действует заклинание, прибавляются Ангелы, Архангелы, Дьяволы и Архидьяволы.",
        "expert": "К списку существ, на которых действует заклинание, прибавляются Гиганты и Титаны. То есть заклинание действует на всех существ 7 уровня.",
        "class_spell": "бафф",
        "element": "огонь",
        "level": "4",
        "value": "Basic: 1  / Advance:  1  / Expert:  1",
        "img": "https://hommbase.ru/images/spells/slayer.png"
    },
    {
        "engname": "Sacriface",
        "rusname": "Жертва",
        "basic": "Уничтожает дружественный отряд и воскрешает падший на количество здоровья равное: (Сила магии героя + Здоровье 1 существа в жертвенном отряде + 3) * Кол-во существ в жертвенном отряде (ед.). Заклинание нельзя использовать, если в армии остался лишь один отряд или если в армии не погибло ни одного существа. Восставшее существо теряет все наложенные до этого эффекты кроме Разрушающего луча, Кислотного дыхания и сниженного здоровья от Яда.",
        "advance": "Кол-во здоровья воскрешаемых существ увеличивается: (Сила магии героя + Здоровье 1 существа в жертвенном отряде + 6) * Кол-во существ в жертвенном отряде (ед.).",
        "expert": "Кол-во здоровья воскрешаемых существ увеличивается: (Сила магии героя + Здоровье 1 существа в жертвенном отряде + 10) * Кол-во существ в жертвенном отряде (ед.).",
        "class_spell": "особое",
        "element": "огонь",
        "level": "5",
        "value": "Basic: 1  / Advance:  1  / Expert:  1",
        "img": "https://hommbase.ru/images/spells/sacriface.png"
    },
    {
        "engname": "Summon fire elemental",
        "rusname": "Элементаль огня",
        "basic": "Призывает на поле боя отряд Огненных элементалей, кол-во которых равно: Сила магии героя * 2. Элементали призываются на гексы первого ряда поля боя, если он занят, то на последующие. После боя все вызванные элементали пропадают. Нельзя вызвать два разных вида элементалей за один бой.",
        "advance": "Кол-во призываемых элементалей возрастает: Сила магии героя * 3.",
        "expert": "Кол-во призываемых элементалей возрастает: Сила магии героя * 4.",
        "class_spell": "особое",
        "element": "огонь",
        "level": "5",
        "value": "Basic: 50  / Advance:  100  / Expert:  150",
        "img": "https://hommbase.ru/images/spells/summonfireelemental.png"
    },
    {
        "engname": "Bless",
        "rusname": "Благословение",
        "basic": "У выбранной дружественной цели урон увеличивается до возможного максимума, если имеется разброс. Заклинание нейтрализуется Проклятием и наоборот.",
        "advance": "У выбранной дружественной цели урон увеличивается до возможного максимума плюс 1 ед.",
        "expert": "У всех дружественных отрядов урон увеличивается до возможного максимума плюс 1 ед.",
        "class_spell": "бафф",
        "element": "вода",
        "level": "1",
        "value": "Basic: 10  / Advance:  11  / Expert:  11",
        "img": "https://hommbase.ru/images/spells/bless.png"
    },
    {
        "engname": "Cure",
        "rusname": "Лечение",
        "basic": "Восстанавливает здоровье выбранной дружественной цели на величину равную: Сила магии героя * 5 + 10 (ед.) Заклинание не воскрешает погибших существ. Снимает все отрицательные заклинания кроме Разрушающего луча и такие эффекты, как Яд, Болезнь, Окаменение, Паралич и Старость.",
        "advance": "Увеличивается кол-во восстанавливаемого здоровья: Сила магии героя * 5 + 20 (ед.)",
        "expert": "Заклинание срабатывает на всех существ на поле боя, кроме загипнотизированных, кол-во восстанавливаемого здоровья: Сила магии героя * 5 + 30 (ед.)",
        "class_spell": "особое",
        "element": "вода",
        "level": "1",
        "value": "Basic: 4  / Advance:  4  / Expert:  4",
        "img": "https://hommbase.ru/images/spells/cure.png"
    },
    {
        "engname": "Dispell",
        "rusname": "Снятие заклинаний",
        "basic": "Снимает с дружественного отряда все заклинания и эффекты, кроме Разрушающего луча и Яда. Снимает Оплетание корнями и Антимагию. Действует даже на тех существ, которые невосприимчивы к магии.",
        "advance": "Заклинание можно использовать как на дружественное существо, так и на вражеское.",
        "expert": "Заклинание срабатывает на всех существ на поле боя, включая боевые машины. Исчезают все Стены огня, Зыбучие пески, Мины и Силовые поля.",
        "class_spell": "особое",
        "element": "вода",
        "level": "1",
        "value": "Basic: 3  / Advance:  3  / Expert:  3",
        "img": "https://hommbase.ru/images/spells/dispell.png"
    },
    {
        "engname": "Protection from water",
        "rusname": "Защита от воды",
        "basic": "Выбранный дружественный отряд получает на 50% меньше урона от заклинаний воды. Заклинание действует в совокупности со способностями големов. Герои ИИ никогда не станут колдовать Защиту от воды, если в книге заклинаний игрока нет ударных заклинаний соответствующей стихии. При использовании заклинания поверх способности Элементалей льда, действие продлевается до величины Силы магии героя, но эффект остается Продвинутого уровня.",
        "advance": "Выбранный дружественный отряд получает на 75% меньше урона от заклинаний воды.",
        "expert": "Все дружественные отряды получают на 75% меньше урона от заклинаний воды.",
        "class_spell": "бафф",
        "element": "вода",
        "level": "1",
        "value": "Basic: 2  / Advance:  4  / Expert:  4",
        "img": "https://hommbase.ru/images/spells/protectionfromwater.png"
    },
    {
        "engname": "Summon boat",
        "rusname": "Вызвать корабль",
        "basic": "Герой призывает на соседнюю клетку воды один из пустых кораблей, в которых не находился вражеский герой, с вероятностью 50%. Заклинание не может появиться на сгенерированной карте без воды. Нельзя призвать корабль на точку, где расположено Событие.",
        "advance": "Вероятность призыва становится равна 75% и если рядом нет пустого корабля, то создается новый, если не превышен лимит в 64 лодки на карте.",
        "expert": "Корабль призывается или создается новый (если не превышен лимит) со 100% вероятностью.",
        "class_spell": "походное",
        "element": "вода",
        "level": "1",
        "value": "Basic: 10  / Advance:  20  / Expert:  20",
        "img": "https://hommbase.ru/images/spells/summonboat.png"
    },
    {
        "engname": "Ice bolt",
        "rusname": "Ледяная молния",
        "basic": "Наносит указанному существу урон равный: Сила магии героя * 20 + 10 (ед.)",
        "advance": "Наносит увеличенный урон: Сила магии героя * 20 + 20 (ед.)",
        "expert": "Наносит увеличенный урон: Сила магии героя * 20 + 50 (ед.)",
        "class_spell": "атакующее",
        "element": "вода",
        "level": "2",
        "value": "Basic: 20  / Advance:  20  / Expert:  20",
        "img": "https://hommbase.ru/images/spells/icebolt.png"
    },
    {
        "engname": "Remove obstacle",
        "rusname": "Убрать преграду",
        "basic": "Убирает одно накладное препятствие на поле боя. Крупные встроенные препятствия убрать нельзя. Заклинание не действует на крепостные укрепления.",
        "advance": "Заклинанием также можно убирать Стены огня.",
        "expert": "Заклинанием также можно убирать Зыбучие пески, Мины и Силовые поля. Не используя заклинание, а лишь водя курсором по полю боя, можно обнаружить местоположение Мин и Зыбучих песков.",
        "class_spell": "особое",
        "element": "вода",
        "level": "2",
        "value": "Basic: 4  / Advance:  4  / Expert:  4",
        "img": "https://hommbase.ru/images/spells/removeobstacle.png"
    },
    {
        "engname": "Scuttle boat",
        "rusname": "Затопить корабль",
        "basic": "С вероятностью 50% уничтожает корабль, находящийся в области экрана игрока. Заклинание не может появиться на сгенерированной карте без воды.",
        "advance": "Вероятность затопить корабль возрастает до 75%.",
        "expert": "Вероятность затопить корабль возрастает до 100%.",
        "class_spell": "походное",
        "element": "вода",
        "level": "2",
        "value": "Basic: 1  / Advance:  1  / Expert:  1",
        "img": "https://hommbase.ru/images/spells/scuttleboat.png"
    },
    {
        "engname": "Weakness",
        "rusname": "Слабость",
        "basic": "Снижает атаку выбранного вражеского отряда на 3 ед., но не ниже 0. При использовании заклинания поверх способности Ядовитых змиев, Жриц моря и Заклинательниц, действие продлевается до величины Силы магии героя, но эффект остается Продвинутого уровня.",
        "advance": "Снижает атаку выбранного вражеского отряда на 6 ед., но не ниже 0.",
        "expert": "Снижает атаку всех вражеских существ на 6 ед., но не ниже 0.",
        "class_spell": "дебафф",
        "element": "вода",
        "level": "2",
        "value": "Basic: 7  / Advance:  15  / Expert:  15",
        "img": "https://hommbase.ru/images/spells/weakness.png"
    },
    {
        "engname": "Forgetfulness",
        "rusname": "Забывчивость",
        "basic": "Указанный вражеский стрелок наносит на 50% меньше урона в ближнем и дальнем бою.",
        "advance": "Указанный вражеский стрелок теряет возможность стрелять и наносит в ближнем бою только 50% урона.",
        "expert": "Все вражеские стрелки теряют возможность стрелять и наносят в ближнем бою 50% урона.",
        "class_spell": "дебафф",
        "element": "вода",
        "level": "3",
        "value": "Basic: 1  / Advance:  1  / Expert:  1",
        "img": "https://hommbase.ru/images/spells/forgetfulness.png"
    },
    {
        "engname": "Frost ring",
        "rusname": "Кольцо холода",
        "basic": "Всем существам, находящимся вокруг указанного гекса, но не включая центральный гекс, наносится урон равный: Сила магии героя * 10 + 15 (ед.) Целью может быть пустой гекс.",
        "advance": "Наносит увеличенный урон: Сила магии героя * 10 + 30 (ед.)",
        "expert": "Наносит увеличенный урон: Сила магии героя * 10 + 60 (ед.)",
        "class_spell": "атакующее",
        "element": "вода",
        "level": "3",
        "value": "Basic: 12  / Advance:  12  / Expert:  12",
        "img": "https://hommbase.ru/images/spells/frostring.png"
    },
    {
        "engname": "Mirth",
        "rusname": "Радость",
        "basic": "Повышает боевой дух указанного дружественного отряда на 1 ед., но не более +3. При использовании заклинания поверх способности Сатиров, действие продлевается до величины Силы магии героя, но эффект остается Продвинутого уровня.",
        "advance": "Повышает боевой дух указанного дружественного отряда на 2 ед., но не более +3.",
        "expert": "Повышает боевой дух всех дружественных отрядов на 2 ед., но не более +3.",
        "class_spell": "бафф",
        "element": "вода",
        "level": "3",
        "value": "Basic: 1  / Advance:  2  / Expert:  2",
        "img": "https://hommbase.ru/images/spells/mirth.png"
    },
    {
        "engname": "Teleport",
        "rusname": "Телепорт",
        "basic": "Перемещает дружественное существо на указанный гекс поля боя. При осаде нельзя переместить существо на гекс перед закрытыми воротами, на клетки рва и за него. Телепортировать цель через стены можно только тогда, когда есть пролом или под некоторыми особыми углами, описанными в статье. Цена заклинания составляет 12 ед. маны. ",
        "advance": "Появляется возможность перемещать существ на гексы рва и за него. Цена заклинания снижается до 6 ед. маны.",
        "expert": "Появляется возможность перемещать существ через ров и городские стены. Цена заклинания снижается до 3 ед. маны.",
        "class_spell": "особое",
        "element": "вода",
        "level": "3",
        "value": "Basic: 20  / Advance:  20  / Expert:  20",
        "img": "https://hommbase.ru/images/spells/teleport.png"
    },
    {
        "engname": "Clone",
        "rusname": "Клон",
        "basic": "Создает клона выбранного дружественного отряда 1-5 уровня на соседнем гексе. Клон обладает всеми способностями основного существа, кроме Огненного щита Ифритов, Вампиризма и Возрождения Фениксов. Клон исчезает при получении любого урона или после убийства клонируемого отряда. ",
        "advance": "В добавок к базовому действию заклинания позволяет клонировать существ 6 уровня.",
        "expert": "Позволяет клонировать существ любого уровня.",
        "class_spell": "особое",
        "element": "вода",
        "level": "4",
        "value": "Basic: 20  / Advance:  40  / Expert:  50",
        "img": "https://hommbase.ru/images/spells/clone.png"
    },
    {
        "engname": "Prayer",
        "rusname": "Молитва",
        "basic": "Атака, защита и скорость выбранного дружественного существа увеличивается на 2 ед.",
        "advance": "Атака, защита и скорость выбранного дружественного существа увеличивается на 4 ед.",
        "expert": "Атака, защита и скорость всех дружественных отрядов увеличивается на 4 ед.",
        "class_spell": "бафф",
        "element": "вода",
        "level": "4",
        "value": "Basic: 8  / Advance:  16  / Expert:  16",
        "img": "https://hommbase.ru/images/spells/prayer.png"
    },
    {
        "engname": "Water walk",
        "rusname": "Хождение по воде",
        "basic": "Герой получает возможность ходить по воде, но не останавливаться в ней. Штраф передвижения при пересечении воды составляет 40%. Заклинание нельзя использовать, находясь в корабле. Заклинание не может появиться на сгенерированной карте без воды.",
        "advance": "Штраф передвижения при перемещении по воде снижается до 20%.",
        "expert": "Исчезает штраф передвижения при перемещении по воде.",
        "class_spell": "походное",
        "element": "вода",
        "level": "4",
        "value": "Basic: 15  / Advance:  20  / Expert:  25",
        "img": "https://hommbase.ru/images/spells/waterwalk.png"
    },
    {
        "engname": "Summon water elemental",
        "rusname": "Элементаль воды",
        "basic": "Призывает на поле боя отряд Водных элементалей, кол-во которых равно: Сила магии героя * 2. Элементали призываются на гексы первого ряда поля боя, если он занят, то на последующие. После боя все вызванные элементали пропадают. Нельзя вызвать два разных вида элементалей за один бой.",
        "advance": "Кол-во призываемых элементалей возрастает: Сила магии героя * 3.",
        "expert": "Кол-во призываемых элементалей возрастает: Сила магии героя * 4.",
        "class_spell": "особое",
        "element": "вода",
        "level": "5",
        "value": "Basic: 50  / Advance:  100  / Expert:  150",
        "img": "https://hommbase.ru/images/spells/summonwaterelemental.png"
    },
    {
        "engname": "Haste",
        "rusname": "Ускорение",
        "basic": "Скорость выбранного дружественного отряда увеличивается на 3 ед. Заклинание нейтрализуется Медлительностью и наоборот.",
        "advance": "Скорость выбранного дружественного отряда увеличивается на 5 ед.",
        "expert": "Скорость всех дружественных отрядов увеличивается на 5 ед.",
        "class_spell": "бафф",
        "element": "воздух",
        "level": "1",
        "value": "Basic: 5  / Advance:  10  / Expert:  10",
        "img": "https://hommbase.ru/images/spells/haste.png"
    },
    {
        "engname": "View air",
        "rusname": "Просмотр воздуха",
        "basic": "Показывает звездочками расположение всех артефактов на уменьшенной карте Обзор мира. Не показывает Свитки, Грааль и Ящики пандоры.",
        "advance": "В добавок к базовому действию заклинания показывает флажками всех героев на уменьшенной карте.",
        "expert": "В добавок к продвинутому действию заклинания показывает все города на уменьшенной карте.",
        "class_spell": "походное",
        "element": "воздух",
        "level": "1",
        "value": "Basic: 1  / Advance:  1  / Expert:  1",
        "img": "https://hommbase.ru/images/spells/viewair.png"
    },
    {
        "engname": "Disguise",
        "rusname": "Маскировка",
        "basic": "Скрывает армию героя от глаз противника. Вместо настоящей армии он будет видеть наиболее сильных существ героя, исходя из их ценности, вместо существ ниже уровнем. Кол-во отображаемых существ не изменяется. Действует только против реальных игроков, но не против ИИ. ",
        "advance": "Скрывает также кол-во существ в армии героя. Вместо реального размера армии противник увидит от 1 до 5 существ в каждом отряде. Если противник применит Видения, то увидит кол-во каждого отряда равное 0.",
        "expert": "Вместо самых сильных, на данный момент, существ в армии, противник увидит армию из улучшенных существ 7 уровня из стартового города героя.",
        "class_spell": "походное",
        "element": "воздух",
        "level": "2",
        "value": "Basic: 1  / Advance:  1  / Expert:  1",
        "img": "https://hommbase.ru/images/spells/disguise.png"
    },
    {
        "engname": "Disrupting ray",
        "rusname": "Разрушающий луч",
        "basic": "Выбранное вражеское существо теряет 3 ед. защиты, если защита не равна 0. Повторное применение заклинания суммирует эффект. Заклинание нельзя снять с цели никаким образом, даже после воскрешения погибшего существа, на нем останется эффект.",
        "advance": "Уменьшает защиту цели на 4 ед., если она не равна 0.",
        "expert": "Уменьшает защиту цели на 5 ед., если она не равна 0.",
        "class_spell": "дебафф",
        "element": "воздух",
        "level": "2",
        "value": "Basic: 7  / Advance:  15  / Expert:  15",
        "img": "https://hommbase.ru/images/spells/disruptingray.png"
    },
    {
        "engname": "Fortune",
        "rusname": "Удача",
        "basic": "Удача выбранной дружественной цели увеличивается на 1, но не выше +3. При использовании заклинания поверх способности Лепреконов, действие продлевается до величины Силы магии героя, но эффект остается Продвинутого уровня.",
        "advance": "Удача выбранной дружественной цели увеличивается на 2, но не выше +3.",
        "expert": "Удача всех дружественных отрядов увеличивается на 2, но не выше +3.",
        "class_spell": "бафф",
        "element": "воздух",
        "level": "2",
        "value": "Basic: 1  / Advance:  2  / Expert:  2",
        "img": "https://hommbase.ru/images/spells/fortune.png"
    },
    {
        "engname": "Lightning bolt",
        "rusname": "Молния",
        "basic": "Наносит указанному существу урон равный: Сила магии героя * 25 + 10 (ед.)",
        "advance": "Наносит увеличенный урон: Сила магии героя * 25 + 20 (ед.)",
        "expert": "Наносит увеличенный урон: Сила магии героя * 25 + 50 (ед.)",
        "class_spell": "атакующее",
        "element": "воздух",
        "level": "2",
        "value": "Basic: 25  / Advance:  25  / Expert:  25",
        "img": "https://hommbase.ru/images/spells/lightningbolt.png"
    },
    {
        "engname": "Precision",
        "rusname": "Точность",
        "basic": "Атака в дальнем бою увеличивается на 3 ед. у указанного дружественного стрелка. Если стрелок заблокирован и может бить только в ближнем бою, то заклинание не будет работать.",
        "advance": "Атака в дальнем бою увеличивается на 6 ед. у указанного дружественного стрелка.",
        "expert": "Атака всех дружественных стрелков в дальнем бою увеличивается на 6 ед.",
        "class_spell": "бафф",
        "element": "воздух",
        "level": "2",
        "value": "Basic: 7  / Advance:  15  / Expert:  15",
        "img": "https://hommbase.ru/images/spells/precision.png"
    },
    {
        "engname": "Protection from air",
        "rusname": "Защита от воздуха",
        "basic": "Выбранный дружественный отряд получает на 50% меньше урона от заклинаний воздуха. Заклинание действует в совокупности со способностями големов. Герои ИИ никогда не станут колдовать Защиту от воздуха, если в книге заклинаний игрока нет ударных заклинаний соответствующей стихии. При использовании заклинания поверх способности Элементалей шторма, действие продлевается до величины Силы магии героя, но эффект остается Продвинутого уровня.",
        "advance": "Выбранный дружественный отряд получает на 75% меньше урона от заклинаний воздуха.",
        "expert": "Все дружественные отряды получают на 75% меньше урона от заклинаний воздуха.",
        "class_spell": "бафф",
        "element": "воздух",
        "level": "2",
        "value": "Basic: 2  / Advance:  4  / Expert:  4",
        "img": "https://hommbase.ru/images/spells/protectionfromair.png"
    },
    {
        "engname": "Air shield",
        "rusname": "Воздушный щит",
        "basic": "Выбранный дружественный отряд получает на 25% меньше урона от стрелков и боевых машин.",
        "advance": "Выбранный дружественный отряд получает на 50% меньше урона от стрелков и боевых машин.",
        "expert": "Все дружественные отряды получают на 50% меньше урона от стрелков и боевых машин.",
        "class_spell": "бафф",
        "element": "воздух",
        "level": "3",
        "value": "Basic: 20  / Advance:  50  / Expert:  50",
        "img": "https://hommbase.ru/images/spells/airshield.png"
    },
    {
        "engname": "Destroy undead",
        "rusname": "Упокоить нежить",
        "basic": "Наносит всей нежити (существа Некрополиса и Мумии) на поле боя урон равный: Сила магии героя * 10 + 10 (ед.)",
        "advance": "Наносит увеличенный урон: Сила магии героя * 10 + 20 (ед.)",
        "expert": "Наносит увеличенный урон: Сила магии героя * 10 + 50 (ед.)",
        "class_spell": "атакующее",
        "element": "воздух",
        "level": "3",
        "value": "Basic: 40  / Advance:  40  / Expert:  40",
        "img": "https://hommbase.ru/images/spells/destroyundead.png"
    },
    {
        "engname": "Hypnotize",
        "rusname": "Гипноз",
        "basic": "Дает контроль над вражеским существом, если его здоровье не превышает: Сила магии героя * 25 + 10 (ед.) Здоровье считается с эффектами Яда, Старости и бонусами от артефактов. ",
        "advance": "Лимит здоровья целевого отряда увеличивается: Сила магии героя * 25 + 20 (ед.)",
        "expert": "Лимит здоровья целевого отряда увеличивается: Сила магии героя * 25 + 50 (ед.)",
        "class_spell": "дебафф",
        "element": "воздух",
        "level": "3",
        "value": "Basic: 25  / Advance:  50  / Expert:  100",
        "img": "https://hommbase.ru/images/spells/hypnotize.png"
    },
    {
        "engname": "Chain lightning",
        "rusname": "Цепная молния",
        "basic": "Наносит урон вражескому существу и 3 целям по цепочке за ним. Первая цель получает урон равный: Сила магии героя * 40 + 25 (ед.), каждая последующая получает на 50% меньше урона, чем предыдущая. Молния выбирает цель ближайшую к пораженной и может перекинуться на дружественное существо или боевую машину. ",
        "advance": "Увеличивается исходный урон заклинания: Сила магии героя * 40 + 50 (ед.) и вместо 3 поражает 4 цели после основной.",
        "expert": "Увеличивается исходный урон заклинания: Сила магии героя * 40 + 100 (ед.).",
        "class_spell": "атакующее",
        "element": "воздух",
        "level": "4",
        "value": "Basic: 75  / Advance:  75  / Expert:  75",
        "img": "https://hommbase.ru/images/spells/chainlightning.png"
    },
    {
        "engname": "Counterstrike",
        "rusname": "Контрудар",
        "basic": "Указанная дружественная цель получает возможность отвечать на 2 атаки за 1 раунд боя. Если Контрудар снят заклинанием, он все равно будет работать до конца текущего раунда.",
        "advance": "Указанная дружественная цель получает возможность отвечать на 3 атаки за 1 раунд боя.",
        "expert": "Все дружественные отряды получают возможность отвечать на 3 атаки за 1 раунд боя.",
        "class_spell": "бафф",
        "element": "воздух",
        "level": "4",
        "value": "Basic: 20  / Advance:  30  / Expert:  30",
        "img": "https://hommbase.ru/images/spells/counterstrike.png"
    },
    {
        "engname": "Dimension door",
        "rusname": "Дверь измерений",
        "basic": "Перемещает героя на свободную клетку карты в пределах области экрана игрока (8 клеток вверх и 9 клеток в остальные стороны). Заклинания можно использовать 2 раза за день (без навыка Магия воздуха - 1 раз). Телепортация отнимает 300 очков передвижения у героя. Нельзя перемещать героя с суши на воду и наоборот, находясь в лодке, нельзя телепортироваться на сушу.",
        "advance": "Количество применений заклинания в день увеличивается до 3 раз.",
        "expert": "Количество применений заклинания в день увеличивается до 4 раз. Телепортация отнимает 200 очков передвижения.",
        "class_spell": "походное",
        "element": "воздух",
        "level": "5",
        "value": "Basic: 30  / Advance:  40  / Expert:  50",
        "img": "https://hommbase.ru/images/spells/dimensiondoor.png"
    },
    {
        "engname": "Fly",
        "rusname": "Полет",
        "basic": "Герой получает возможность перемещаться через воду и любые объекты на карте, но не останавливаться на них. Штраф при передвижении через воду и объекты составляет 40%. При полете над ландшафтом, имеющим свой штраф для героя, берется меньший из штрафов. Нельзя применять заклинание на корабле. ",
        "advance": "Штраф передвижения при перемещении через воду и объекты снижается до 20%.",
        "expert": "Позволяет пермещаться через воду и объекты без штрафа передвижения.",
        "class_spell": "походное",
        "element": "воздух",
        "level": "5",
        "value": "Basic: 30  / Advance:  40  / Expert:  50",
        "img": "https://hommbase.ru/images/spells/fly.png"
    },
    {
        "engname": "Summon air elemental",
        "rusname": "Элементаль воздуха",
        "basic": "Призывает на поле боя отряд Воздушных элементалей, кол-во которых равно: Сила магии героя * 2. Элементали призываются на гексы первого ряда поля боя, если он занят, то на последующие. После боя все вызванные элементали пропадают. Нельзя вызвать два разных вида элементалей за один бой.",
        "advance": "Кол-во призываемых элементалей возрастает: Сила магии героя * 3.",
        "expert": "Кол-во призываемых элементалей возрастает: Сила магии героя * 4.",
        "class_spell": "особое",
        "element": "воздух",
        "level": "5",
        "value": "Basic: 50  / Advance:  100  / Expert:  150",
        "img": "https://hommbase.ru/images/spells/summonairelemental.png"
    },
    {
        "engname": "Magic mirror",
        "rusname": "Волшебное зеркало",
        "basic": "Дружественное существо, на которое наложено заклинание, получает 20% шанс отразить вражеское заклинание на случайное вражеское существо или боевую машину. Отраженное заклинание может быть нейтрализовано, если цель невосприимчива к нему. Заклинание защищает от Гипноза, но не защищает от массовых заклинаний. Вражеское заклинание не может отразиться дважды.",
        "advance": "Шанс срабатывания заклинания увеличивается до 30%.",
        "expert": "Шанс срабатывания заклинания увеличивается до 40%.",
        "class_spell": "бафф",
        "element": "воздух",
        "level": "5",
        "value": "Basic: 10  / Advance:  15  / Expert:  20",
        "img": "https://hommbase.ru/images/spells/magicmirror.png"
    },
    {
        "engname": "Titan`s lightning bolt",
        "rusname": "Молния титана",
        "basic": "Наносит указанному вражескому существу 600 ед. урона. Сила магии и навык Магия воздуха у героя никак не влияют на эффективность заклинания, однако влияют наличие Сферы небесного свода и навыка Волшебство. Заклинание можно получить в книгу только экипировав артефакт Грохот титана или используя читы.",
        "advance": "Действие заклинания не отличается от базового.",
        "expert": "Действие заклинания не отличается от базового.",
        "class_spell": "атакующее",
        "element": "воздух",
        "level": "5",
        "value": "Basic: 75  / Advance:  75  / Expert:  75",
        "img": "https://hommbase.ru/images/spells/titanslightningbolt.png"
    },
    {
        "engname": "Shield",
        "rusname": "Щит",
        "basic": "Указанное дружественное существо получает на 15% меньше урона в ближнем бою.",
        "advance": "Указанное дружественное существо получает на 30% меньше урона в ближнем бою.",
        "expert": "Все дружественные отряды получают на 30% меньше урона в ближнем бою.",
        "class_spell": "бафф",
        "element": "земля",
        "level": "1",
        "value": "Basic: 10  / Advance:  20  / Expert:  20",
        "img": "https://hommbase.ru/images/spells/shield.png"
    },
    {
        "engname": "Slow",
        "rusname": "Медлительность",
        "basic": "Скорость указанного вражеского существа снижается на 25%. Заклинание нейтрализуется Ускорением и наоборот.",
        "advance": "Скорость указанного вражеского существа снижается на 50% плюс 1 ед. к итогововму значению.",
        "expert": "Скорость всех вражеских отрядов снижается на 50% плюс 1 ед. к итогововму значению.",
        "class_spell": "дебафф",
        "element": "земля",
        "level": "1",
        "value": "Basic: 7  / Advance:  15  / Expert:  15",
        "img": "https://hommbase.ru/images/spells/slow.png"
    },
    {
        "engname": "Stone skin",
        "rusname": "Каменная кожа",
        "basic": "Защита указанного дружественного отряда увеличивается на 3 ед.",
        "advance": "Защита указанного дружественного отряда увеличивается на 6 ед.",
        "expert": "Защита всех дружественных отрядов увеличивается на 6 ед.",
        "class_spell": "бафф",
        "element": "земля",
        "level": "1",
        "value": "Basic: 7  / Advance:  15  / Expert:  15",
        "img": "https://hommbase.ru/images/spells/stoneskin.png"
    },
    {
        "engname": "View earth",
        "rusname": "Просмотр земли",
        "basic": "Показывает  расположение всех залежей ресурсов на уменьшенной карте Обзор мира.",
        "advance": "В добавок к базовому действию заклинания показывает все шахты на уменьшенной карте.",
        "expert": "В добавок к продвинутому действию заклинания открывает неиследованную территорию на уменьшенной карте, чтобы увидеть тип ландшафта в любой точке.",
        "class_spell": "походное",
        "element": "земля",
        "level": "1",
        "value": "Basic: 1  / Advance:  1  / Expert:  1",
        "img": "https://hommbase.ru/images/spells/viewearth.png"
    },
    {
        "engname": "Death ripple",
        "rusname": "Волна смерти",
        "basic": "Все существа на поле боя кроме нежити (существа Некрополиса и Мумии) и боевых машин получают урон равный: Сила магии героя * 5 + 10 (ед.)",
        "advance": "Наносит увеличенный урон: Сила магии героя * 5 + 20 (ед.)",
        "expert": "Наносит увеличенный урон: Сила магии героя * 5 + 30 (ед.)",
        "class_spell": "атакующее",
        "element": "земля",
        "level": "2",
        "value": "Basic: 20  / Advance:  20  / Expert:  20",
        "img": "https://hommbase.ru/images/spells/deathripple.png"
    },
    {
        "engname": "Quick sand",
        "rusname": "Зыбучие пески",
        "basic": "На 4 случайных гексах поля появляются зыбучие пески, которые видны только колдующему и существам на родной земле. При контакте с песком существо останавливается и его ход заканчивается. Заклинание не действует на летающих существ. Если игрок видит зыбучие пески, то его существа будут автоматически их обходить.",
        "advance": "Количество зыбучих песков на поле увеличивается до 6.",
        "expert": "Количество зыбучих песков на поле увеличивается до 8.",
        "class_spell": "особое",
        "element": "земля",
        "level": "2",
        "value": "Basic: 1  / Advance:  1  / Expert:  1",
        "img": "https://hommbase.ru/images/spells/quicksand.png"
    },
    {
        "engname": "Protection from earth",
        "rusname": "Защита от земли",
        "basic": "Выбранный дружественный отряд получает на 50% меньше урона от заклинаний земли. Заклинание действует в совокупности со способностями големов. Герои ИИ никогда не станут колдовать Защиту от земли, если в книге заклинаний игрока нет ударных заклинаний соответствующей стихии. При использовании заклинания поверх способности Элементалей магмы, действие продлевается до величины Силы магии героя, но эффект остается Продвинутого уровня.",
        "advance": "Выбранный дружественный отряд получает на 75% меньше урона от заклинаний земли.",
        "expert": "Все дружественные отряды получают на 75% меньше урона от заклинаний земли.",
        "class_spell": "бафф",
        "element": "земля",
        "level": "3",
        "value": "Basic: 2  / Advance:  4  / Expert:  4",
        "img": "https://hommbase.ru/images/spells/protectionfromearth.png"
    },
    {
        "engname": "Animate dead",
        "rusname": "Поднять мертвецов",
        "basic": "Воскрешает и излечивает существ в отряде, где погибло хотя бы одно существо, на величину здоровья равную: Сила магии героя * 50 + 30 (ед.) Действует только на нежить. Если Силы магии не хватает на воскрешение хотя бы одного существа в отряде, то заклинание не сработает. Восставшее существо теряет все наложенные до этого эффекты кроме Разрушающего луча и сниженного здоровья от Яда.",
        "advance": "Количество восстанавливаемого здоровья увеличивается: Сила магии героя * 50 + 60 (ед.)",
        "expert": "Количество восстанавливаемого здоровья увеличивается: Сила магии героя * 50 + 160 (ед.)",
        "class_spell": "особое",
        "element": "земля",
        "level": "3",
        "value": "Basic: 60  / Advance:  60  / Expert:  120",
        "img": "https://hommbase.ru/images/spells/animatedead.png"
    },
    {
        "engname": "Anti-magic",
        "rusname": "Антимагия",
        "basic": "Дает выбранному дружественному отряду иммунитет к заклинаниям 1-3 уровней. Если на существе уже есть такие заклинания, то они пропадают. ",
        "advance": "Защищает также от заклинаний 4 уровня и снимает их при наложении.",
        "expert": "Дает существу защиту от любых заклинаний и снимает их при наложении.",
        "class_spell": "бафф",
        "element": "земля",
        "level": "3",
        "value": "Basic: 12  / Advance:  18  / Expert:  24",
        "img": "https://hommbase.ru/images/spells/antimagic.png"
    },
    {
        "engname": "Earthquake",
        "rusname": "Землетрясение",
        "basic": "Наносит 1 ед. урона двум случайным элементам крепостных укреплений при осаде города. Есть вероятность, что два удара придутся в одну точку, но заклинание все равно нанесет только 1 ед. урона.",
        "advance": "Наносит урон по трем случайным элементам крепостных укреплений вместо двух.",
        "expert": "Наносит урон по четырем случайным элементам крепостных укреплений вместо трех.",
        "class_spell": "атакующее",
        "element": "земля",
        "level": "3",
        "value": "Basic: 1  / Advance:  1  / Expert:  1",
        "img": "https://hommbase.ru/images/spells/earthquake.png"
    },
    {
        "engname": "Force field",
        "rusname": "Силовое поле",
        "basic": "В указанном месте поля боя на двух смежных гексах по вертикали появляется силовое поле, которое не позволяет пройти существам. ",
        "advance": "Размер силового поля увеличивается на 1 гекс по вертикали.",
        "expert": "Действие заклинания не отличается от продвинутого.",
        "class_spell": "особое",
        "element": "земля",
        "level": "3",
        "value": "Basic: 1  / Advance:  1  / Expert:  1",
        "img": "https://hommbase.ru/images/spells/forcefield.png"
    },
    {
        "engname": "Meteor shower",
        "rusname": "Метеоритный дождь",
        "basic": "В указанной зоне площадью 7 гексов все существа получают урон равный: Сила магии героя * 25 + 25 (ед.) Целью может быть пустой гекс.",
        "advance": "Наносит увеличенный урон: Сила магии героя * 25 + 50 (ед.)",
        "expert": "Наносит увеличенный урон: Сила магии героя * 25 + 100 (ед.)",
        "class_spell": "атакующее",
        "element": "земля",
        "level": "4",
        "value": "Basic: 37  / Advance:  37  / Expert:  37",
        "img": "https://hommbase.ru/images/spells/meteorshower.png"
    },
    {
        "engname": "Resurrection",
        "rusname": "Воскрешение",
        "basic": "Воскрешает и излечивает существ в отряде, где погибло хотя бы одно существо, на величину здоровья равную: Сила магии героя * 50 + 40 (ед.) Действует только на живых существ. Если Силы магии не хватает на воскрешение хотя бы одного существа в отряде, то заклинание не сработает. После боя все воскрешенные существа исчезают, однако если герой победил, а в армии остались только воскрешенные существа, то у него останется 1 существо из самого правого слота. Если на одном гексе лежит несколько трупов, то воскреснет самый верхний. Восставшее существо теряет все наложенные до этого эффекты кроме Разрушающего луча, Кислотного дыхания и сниженного здоровья от Яда.",
        "advance": "Количество восстанавливаемого здоровья увеличивается: Сила магии героя * 50 + 80 (ед.) Воскрешенные существа не исчезают после боя.",
        "expert": "Количество восстанавливаемого здоровья увеличивается: Сила магии героя * 50 + 160 (ед.)",
        "class_spell": "особое",
        "element": "земля",
        "level": "4",
        "value": "Basic: 50  / Advance:  60  / Expert:  120",
        "img": "https://hommbase.ru/images/spells/resurrection.png"
    },
    {
        "engname": "Sorrow",
        "rusname": "Печаль",
        "basic": "Снижает боевой дух указанного вражеского отряда на 1 ед., но не ниже -3.",
        "advance": "Снижает боевой дух указанного вражеского отряда на 2 ед., но не ниже -3.",
        "expert": "Снижает боевой дух всех вражеских отрядов на 2 ед., но не ниже -3.",
        "class_spell": "дебафф",
        "element": "земля",
        "level": "4",
        "value": "Basic: 1  / Advance:  2  / Expert:  2",
        "img": "https://hommbase.ru/images/spells/sorrow.png"
    },
    {
        "engname": "Town portal",
        "rusname": "Городской портал",
        "basic": "Перемещает героя в ближайший дружественный город (свой или союзника). Отнимает 300 очков передвижения. Клетка городских ворот должна быть свободна, иначе перемещения не произойдёт. Нельзя использовать, находясь в корабле. Нужно учитывать, что ближайший к герою город может быть как на поверхности, так и под землей. Если координаты городов на поверхности и под землей совпадают, то в приоритете будет город на уровне, где находится герой. Если расстояние до двух город одинаковое, то будет выбран город с меньшим значением id (раньше сгенерирован на карте).",
        "advance": "Позволяет выбирать из списка любой свой или союзный город для перемещения.",
        "expert": "При использовании заклинания отнимает 200 очков передвижения.",
        "class_spell": "походное",
        "element": "земля",
        "level": "4",
        "value": "Basic: 5  / Advance:  70  / Expert:  70",
        "img": "https://hommbase.ru/images/spells/townportal.png"
    },
    {
        "engname": "Implosion",
        "rusname": "Взрыв",
        "basic": "Наносит указанному существу урон равный: Сила магии героя * 75 + 100 (ед.)",
        "advance": "Наносит увеличенный урон: Сила магии героя * 75 + 200 (ед.)",
        "expert": "Наносит увеличенный урон: Сила магии героя * 75 + 300 (ед.)",
        "class_spell": "атакующее",
        "element": "земля",
        "level": "5",
        "value": "Basic: 75  / Advance:  75  / Expert:  75",
        "img": "https://hommbase.ru/images/spells/implosion.png"
    },
    {
        "engname": "Summon earth elemental",
        "rusname": "Элементаль земли",
        "basic": "Призывает на поле боя отряд Земляных элементалей, кол-во которых равно: Сила магии героя * 2. Элементали призываются на гексы первого ряда поля боя, если он занят, то на последующие. После боя все вызванные элементали пропадают. Нельзя вызвать два разных вида элементалей за один бой.",
        "advance": "Кол-во призываемых элементалей возрастает: Сила магии героя * 3.",
        "expert": "Кол-во призываемых элементалей возрастает: Сила магии героя * 4.",
        "class_spell": "особое",
        "element": "земля",
        "level": "5",
        "value": "Basic: 50  / Advance:  100  / Expert:  150",
        "img": "https://hommbase.ru/images/spells/summonearthelemental.png"
    },
    {
        "engname": "Magic arrow",
        "rusname": "Волшебная стрела",
        "basic": "Наносит указанному существу урон равный: Сила магии героя * 10 + 10 (ед.) ",
        "advance": "Наносит увеличенный урон: Сила магии героя * 10 + 20 (ед.)",
        "expert": "Наносит увеличенный урон: Сила магии героя * 10 + 30 (ед.)",
        "class_spell": "атакующее",
        "element": "адаптивное",
        "level": "1",
        "value": "Basic: 10  / Advance:  10  / Expert:  10",
        "img": "https://hommbase.ru/images/spells/magicarrow.png"
    },
    {
        "engname": "Visions",
        "rusname": "Видения",
        "basic": "При нажатии ПКМ на нейтральный вражеский отряд, игрок увидит точное количество существ в нем, уровень агрессии и цену в случае присоединения отряда к герою. Действует на расстояние равное Силе магии героя, но не менее 3 клеток. ",
        "advance": "В добавок к базовому действию заклинания, показывает первичные навыки, удачу, боевой дух, кол-во маны и точный размер армии вражеских героев. Дальность действия считается по формуле: Сила магии героя * 2 (клетки).",
        "expert": "В добавок к продвинутому действию заклинания, показывает точное кол-во существ в гарнизонах и городах, уровень развития городской управы, наличие хранилища ресурсов и ежедневный доход. Дальность действия считается по формуле: Сила магии героя * 3 (клетки).",
        "class_spell": "походное",
        "element": "адаптивное",
        "level": "2",
        "value": "Basic: 1  / Advance:  1  / Expert:  1",
        "img": "https://hommbase.ru/images/spells/visions.png"
    }
]